{
  "msg": "Products Found",
  "Products": [
    {
      "id": "product001",
      "Name": "Azure Top",
      "ColorAvail": {
        "Color": "Navy",
        "ColorCode": "#313041"
      },
      "SizeAvail": [

        {
          "Size": "M",
          "Waist": 24,
          "Hip": 34,
          "Length": 20
        },
        {
          "Size": "L",
          "Waist": 24,
          "Hip": 34,
          "Length": 20
        }
      ],
      "Price": 2000,
      "Discount": 0,
      "Details": "Pleated Ruffles",
      "Image":"car1.png",
      "Description": "This exclusive top is all about sophistication, which can be worn as perfect evening wear along with a simple piece of jewelry. With pleated ruffles on neckline and armhole and a straight fit, this top will definitely make you stand class apart.",
      "Features": [
        {
          "Wrinkle_free": "true"
        },
        {
          "Stretch": "false"
        },
        {
          "clothing": "true"
        },
        {
          "Lined": "false"
        },
        {
          "Sheer": "false"
        },
        {
          "Machine_Wash": "false"
        }
      ]
    },
    {
      "id": "product002",
      "Name": "Merlot",
      "ColorAvail": {
        "Color": "Marroon",
        "ColorCode": "#BD1241"
      },
      "SizeAvail": [
        {
          "Size": "S",
          "Waist": 24,
          "Hip": 34,
          "Length": 20
        },
        {
          "Size": "M",
          "Waist": 24,
          "Hip": 34,
          "Length": 20
        },
        {
          "Size": "XS",
          "Waist": 24,
          "Hip": 34,
          "Length": 20
        },
        {
          "Size": "L",
          "Waist": 24,
          "Hip": 34,
          "Length": 20
        },
        {
          "Size": "XL",
          "Waist": 24,
          "Hip": 34,
          "Length": 20
        }
      ],
      "Price": 2500,
      "Discount": 0,
      "Details": "Pleated Ruffles",
      "Image":"car2.png",
      "Description": "This exclusive top is all about sophistication, which can be worn as perfect evening wear along with a simple piece of jewelry. With pleated ruffles on neckline and armhole and a straight fit, this top will definitely make you stand class apart.",
      "Features": [
        {
          "Wrinkle_free": "true"
        },
        {
          "Stretch": "false"
        },
        {
          "clothing": "true"
        },
        {
          "Lined": "false"
        },
        {
          "Sheer": "false"
        },
        {
          "Machine_Wash": "false"
        }
      ]
    },
    {
      "id": "product003",
      "Name": "Houndstooth",
      "ColorAvail": {
        "Color": "White and Navy",
        "ColorCode": "#FBFFFE, #514F5C"
      },
      "SizeAvail": [
        {
          "Size": "S",
          "Waist": 24,
          "Hip": 34,
          "Length": 20
        },
        {
          "Size": "M",
          "Waist": 24,
          "Hip": 34,
          "Length": 20
        },
        {
          "Size": "XS",
          "Waist": 24,
          "Hip": 34,
          "Length": 20
        },
        {
          "Size": "L",
          "Waist": 24,
          "Hip": 34,
          "Length": 20
        },
        {
          "Size": "XL",
          "Waist": 24,
          "Hip": 34,
          "Length": 20
        }
      ],
      "Price": 3000,
      "Discount": 0,
      "Details": "Pleated Peplum Panel",
      "Image":"car3.png",
      "Description": "This top is a personification of simplicity. The peplum cut in soft jacquard fabric defines body contour in a very sophisticated manner. The houndstooth print in classic navy and white makes it a perfect office wear without letting you lose your edge.",
      "Features": [
        {
          "Wrinkle_free": "true"
        },
        {
          "Stretch": "true"
        },
        {
          "clothing": "true"
        },
        {
          "Lined": "true"
        },
        {
          "Sheer": "false"
        },
        {
          "Machine_Wash": "true"
        }
      ]
    },
    {
      "id": "product004",
      "Name": "Cedar",
      "ColorAvail": {
        "Color": "Cedar",
        "ColorCode": "#D7B8B1"
      },
      "SizeAvail": [

        {
          "Size": "L",
          "Waist": 24,
          "Hip": 34,
          "Length": 20
        },
        {
          "Size": "XL",
          "Waist": 24,
          "Hip": 34,
          "Length": 20
        }
      ],
      "Price": 2000,
      "Discount": 0,
      "Details": "Stripe Manipulation, Piping On Neckline",
      "Image":"car4.png",
      "Description": "Its time to get rid of those monotonous formals and give way to this elegant top. The directional placement  of stripes with contrast piping at neckline add a tailored detail. The darts ensure to give you a perfect fit.",
      "Features": [
        {
          "Wrinkle_free": "true"
        },
        {
          "Stretch": "true"
        },
        {
          "clothing": "true"
        },
        {
          "Lined": "true"
        },
        {
          "Sheer": "false"
        },
        {
          "Machine_Wash": "true"
        }
      ]
    },
    {
      "id": "product005",
      "Name": "Crystal",
      "ColorAvail": {
        "Color": "White",
        "ColorCode": "#FDFCF9"
      },
      "SizeAvail": [
        {
          "Size": "S",
          "Waist": 24,
          "Hip": 34,
          "Length": 20
        },
        {
          "Size": "M",
          "Waist": 24,
          "Hip": 34,
          "Length": 20
        },
        {
          "Size": "XS",
          "Waist": 24,
          "Hip": 34,
          "Length": 20
        },
        {
          "Size": "L",
          "Waist": 24,
          "Hip": 34,
          "Length": 20
        },
        {
          "Size": "XL",
          "Waist": 24,
          "Hip": 34,
          "Length": 20
        }
      ],
      "Price": 2000,
      "Discount": 0,
      "Details": "Waist Seam, V neck, Sheer Opaque Window Checks",
      "Image":"car5.png",
      "Description": "Count on this simple yet elegant top for all formal occasions. The structured silhouette with monochrome  window checks gives this business camisole an added edge.The side zip ensures good fit.",
      "Features": [
        {
          "Wrinkle_free": "true"
        },
        {
          "Stretch": "false"
        },
        {
          "clothing": "true"
        },
        {
          "Lined": "true"
        },
        {
          "Sheer": "false"
        },
        {
          "Machine_Wash": "true"
        }
      ]
    },
    {
      "id": "product006",
      "Name": "Nautical",
      "ColorAvail": {
        "Color": "Navy",
        "ColorCode": "#313041"
      },
      "SizeAvail": [
        {
          "Size": "S",
          "Waist": 24,
          "Hip": 34,
          "Length": 20
        },
        {
          "Size": "M",
          "Waist": 24,
          "Hip": 34,
          "Length": 20
        },
        {
          "Size": "XS",
          "Waist": 24,
          "Hip": 34,
          "Length": 20
        },
        {
          "Size": "L",
          "Waist": 24,
          "Hip": 34,
          "Length": 20
        },
        {
          "Size": "XL",
          "Waist": 24,
          "Hip": 34,
          "Length": 20
        }
      ],
      "Price": 2000,
      "Discount": 0,
      "Details": "Stripe Manipulation, Piping On Neckline",
      "Image":"car6.png",
      "Description": "Its time to get rid of those monotonous formals and give way to this elegant top. The directional placement of stripes with contrast piping at neckline add a tailored detail. The darts ensure to give you a perfect fit.",
      "Features": [
        {
          "Wrinkle_free": "true"
        },
        {
          "Stretch": "true"
        },
        {
          "clothing": "true"
        },
        {
          "Lined": "true"
        },
        {
          "Sheer": "false"
        },
        {
          "Machine_Wash": "true"
        }
      ]
    },
    {
      "id": "product007",
      "Name": "Streaks",
      "ColorAvail": {
        "Color": "White ",
        "ColorCode": "#FDFCF9"
      },
      "SizeAvail": [
        {
          "Size": "S",
          "Waist": 24,
          "Hip": 34,
          "Length": 20
        },
        {
          "Size": "M",
          "Waist": 24,
          "Hip": 34,
          "Length": 20
        },
        {
          "Size": "XS",
          "Waist": 24,
          "Hip": 34,
          "Length": 20
        },
        {
          "Size": "L",
          "Waist": 24,
          "Hip": 34,
          "Length": 20
        },
        {
          "Size": "XL",
          "Waist": 24,
          "Hip": 34,
          "Length": 20
        }
      ],
      "Price": 2000,
      "Discount": 0,
      "Details": "Stripe Manipulation, Piping On Neckline",
      "Image":"car7.png",
      "Description": "Its time to get rid of those monotonous formals and give way to this elegant top. The directional placement of stripes with contrast piping at neckline add a tailored detail. The darts ensure to give you a perfect fit.",
      "Features": [
        {
          "Wrinkle_free": "true"
        },
        {
          "Stretch": "true"
        },
        {
          "clothing": "true"
        },
        {
          "Lined": "true"
        },
        {
          "Sheer": "false"
        },
        {
          "Machine_Wash": "true"
        }
      ]
    },
    {
      "id": "product008",
      "Name": "Tea Rose",
      "ColorAvail": {
        "Color": "Carrot",
        "ColorCode": "#D06962"
      },
      "SizeAvail": [
        {
          "Size": "S",
          "Waist": 24,
          "Hip": 34,
          "Length": 20
        },
        {
          "Size": "M",
          "Waist": 24,
          "Hip": 34,
          "Length": 20
        },
        {
          "Size": "XS",
          "Waist": 24,
          "Hip": 34,
          "Length": 20
        },
        {
          "Size": "L",
          "Waist": 24,
          "Hip": 34,
          "Length": 20
        },
        {
          "Size": "XL",
          "Waist": 24,
          "Hip": 34,
          "Length": 20
        }
      ],
      "Price": 1800,
      "Discount": 0,
      "Details": "Mega Cap Sleeves, Lapel Flap in Front, Gathers below Yoke",
      "Image":"car8.png",
      "Description": "Keep this top in handy for the days you dont really feel like dressing up but still look classy. The elegant details of lapel flap on minimal gathers and mega sleeves make it look effortlessly polished even without accessories.",
      "Features": [
        {
          "Wrinkle_free": "false"
        },
        {
          "Stretch": "false"
        },
        {
          "clothing": "true"
        },
        {
          "Lined": "false"
        },
        {
          "Sheer": "false"
        },
        {
          "Machine_Wash": "true"
        }
      ]
    },
    {
      "id": "product009",
      "Name": "Jade",
      "ColorAvail": {
        "Color": "Emerald",
        "ColorCode": "#3F413C"
      },
      "SizeAvail": [
        {
          "Size": "S",
          "Waist": 24,
          "Hip": 34,
          "Length": 20
        },
        {
          "Size": "M",
          "Waist": 24,
          "Hip": 34,
          "Length": 20
        },
        {
          "Size": "XS",
          "Waist": 24,
          "Hip": 34,
          "Length": 20
        },
        {
          "Size": "L",
          "Waist": 24,
          "Hip": 34,
          "Length": 20
        },
        {
          "Size": "XL",
          "Waist": 24,
          "Hip": 34,
          "Length": 20
        }
      ],
      "Price": 1800,
      "Discount": 0,
      "Details": "Mega Cap Sleeves, Lapel Flap in Front, Gathers below Yoke",
      "Image":"car9.png",
      "Description": "Keep this top in handy for the days you dont really feel like dressing up but still look classy. The elegant details of lapel flap on minimal gathers and mega sleeves make it look effortlessly polished even without accessories.",
      "Features": [
        {
          "Wrinkle_free": "false"
        },
        {
          "Stretch": "false"
        },
        {
          "clothing": "true"
        },
        {
          "Lined": "false"
        },
        {
          "Sheer": "false"
        },
        {
          "Machine_Wash": "true"
        }
      ]
    },
    {
      "id": "product010",
      "Name": "Ivory ",
      "ColorAvail": {
        "Color": "Cream",
        "ColorCode": "#325F78"
      },
      "SizeAvail": [
        {
          "Size": "S",
          "Waist": 24,
          "Hip": 34,
          "Length": 20
        },
        {
          "Size": "M",
          "Waist": 24,
          "Hip": 34,
          "Length": 20
        },
        {
          "Size": "XS",
          "Waist": 24,
          "Hip": 34,
          "Length": 20
        },
        {
          "Size": "L",
          "Waist": 24,
          "Hip": 34,
          "Length": 20
        },
        {
          "Size": "XL",
          "Waist": 24,
          "Hip": 34,
          "Length": 20
        }
      ],
      "Price": 3000,
      "Discount": 0,
      "Details": "Tie up Neckline, Narrow Cuffs, Statement buttons",
      "Image":"car10.png",
      "Description": "This top features a silken tie which speaks of authority and elegance. It can be tied up in a bow fashion or let loose delicately; tucked in or tucked out. Either way it will add richness to your look in a very minimalistic manner.",
      "Features": [
        {
          "Wrinkle_free": "false"
        },
        {
          "Stretch": "false"
        },
        {
          "clothing": "true"
        },
        {
          "Lined": "false"
        },
        {
          "Sheer": "true"
        },
        {
          "Machine_Wash": "true"
        }
      ]
    },
	{
      "id": "product011",
      "Name": "Fuschia ",
      "ColorAvail": {
        "Color": "Pink",
        "ColorCode": "#325F78"
      },
      "SizeAvail": [
        {
          "Size": "S",
          "Waist": 24,
          "Hip": 34,
          "Length": 20
        },
        {
          "Size": "M",
          "Waist": 24,
          "Hip": 34,
          "Length": 20
        },
        {
          "Size": "XS",
          "Waist": 24,
          "Hip": 34,
          "Length": 20
        },
        {
          "Size": "L",
          "Waist": 24,
          "Hip": 34,
          "Length": 20
        },
        {
          "Size": "XL",
          "Waist": 24,
          "Hip": 34,
          "Length": 20
        }
      ],
      "Price": 3000,
      "Discount": 0,
      "Details": "Tie up Neckline, Narrow Cuffs, Statement buttons",
      "Image":"car11.png",
      "Description": "This top features a silken tie which speaks of authority and elegance. It can be tied up in a bow fashion or let loose delicately; tucked in or tucked out. Either way it will add richness to your look in a very minimalistic manner.",
      "Features": [
        {
          "Wrinkle_free": "false"
        },
        {
          "Stretch": "false"
        },
        {
          "clothing": "true"
        },
        {
          "Lined": "false"
        },
        {
          "Sheer": "true"
        },
        {
          "Machine_Wash": "true"
        }
      ]
    },
	{
      "id": "product013",
      "Name": "Rose ",
      "ColorAvail": {
        "Color": "Cream",
        "ColorCode": "#325F78"
      },
      "SizeAvail": [
        {
          "Size": "S",
          "Waist": 24,
          "Hip": 34,
          "Length": 20
        },
        {
          "Size": "M",
          "Waist": 24,
          "Hip": 34,
          "Length": 20
        },
        {
          "Size": "XS",
          "Waist": 24,
          "Hip": 34,
          "Length": 20
        },
        {
          "Size": "L",
          "Waist": 24,
          "Hip": 34,
          "Length": 20
        },
        {
          "Size": "XL",
          "Waist": 24,
          "Hip": 34,
          "Length": 20
        }
      ],
      "Price": 3000,
      "Discount": 0,
      "Details": "Tie up Neckline, Narrow Cuffs, Statement buttons",
      "Image":"car12.png",
      "Description": "This top features a silken tie which speaks of authority and elegance. It can be tied up in a bow fashion or let loose delicately; tucked in or tucked out. Either way it will add richness to your look in a very minimalistic manner.",
      "Features": [
        {
          "Wrinkle_free": "false"
        },
        {
          "Stretch": "false"
        },
        {
          "clothing": "true"
        },
        {
          "Lined": "false"
        },
        {
          "Sheer": "true"
        },
        {
          "Machine_Wash": "true"
        }
      ]
    },
	{
      "id": "product010",
      "Name": "Ivory ",
      "ColorAvail": {
        "Color": "Cream",
        "ColorCode": "#325F78"
      },
      "SizeAvail": [
        {
          "Size": "S",
          "Waist": 24,
          "Hip": 34,
          "Length": 20
        },
        {
          "Size": "M",
          "Waist": 24,
          "Hip": 34,
          "Length": 20
        },
        {
          "Size": "XS",
          "Waist": 24,
          "Hip": 34,
          "Length": 20
        },
        {
          "Size": "L",
          "Waist": 24,
          "Hip": 34,
          "Length": 20
        },
        {
          "Size": "XL",
          "Waist": 24,
          "Hip": 34,
          "Length": 20
        }
      ],
      "Price": 3000,
      "Discount": 0,
      "Details": "Tie up Neckline, Narrow Cuffs, Statement buttons",
      "Image":"car16.png",
      "Description": "This top features a silken tie which speaks of authority and elegance. It can be tied up in a bow fashion or let loose delicately; tucked in or tucked out. Either way it will add richness to your look in a very minimalistic manner.",
      "Features": [
        {
          "Wrinkle_free": "false"
        },
        {
          "Stretch": "false"
        },
        {
          "clothing": "true"
        },
        {
          "Lined": "false"
        },
        {
          "Sheer": "true"
        },
        {
          "Machine_Wash": "true"
        }
      ]
    },
	{
      "id": "product014",
      "Name": "Ivory ",
      "ColorAvail": {
        "Color": "Cream",
        "ColorCode": "#325F78"
      },
      "SizeAvail": [
        {
          "Size": "S",
          "Waist": 24,
          "Hip": 34,
          "Length": 20
        },
        {
          "Size": "M",
          "Waist": 24,
          "Hip": 34,
          "Length": 20
        },
        {
          "Size": "XS",
          "Waist": 24,
          "Hip": 34,
          "Length": 20
        },
        {
          "Size": "L",
          "Waist": 24,
          "Hip": 34,
          "Length": 20
        },
        {
          "Size": "XL",
          "Waist": 24,
          "Hip": 34,
          "Length": 20
        }
      ],
      "Price": 3000,
      "Discount": 0,
      "Details": "Tie up Neckline, Narrow Cuffs, Statement buttons",
      "Image":"car17.png",
      "Description": "This top features a silken tie which speaks of authority and elegance. It can be tied up in a bow fashion or let loose delicately; tucked in or tucked out. Either way it will add richness to your look in a very minimalistic manner.",
      "Features": [
        {
          "Wrinkle_free": "false"
        },
        {
          "Stretch": "false"
        },
        {
          "clothing": "true"
        },
        {
          "Lined": "false"
        },
        {
          "Sheer": "true"
        },
        {
          "Machine_Wash": "true"
        }
      ]
    },
	{
      "id": "product015",
      "Name": "Ivory ",
      "ColorAvail": {
        "Color": "Cream",
        "ColorCode": "#325F78"
      },
      "SizeAvail": [
        {
          "Size": "S",
          "Waist": 24,
          "Hip": 34,
          "Length": 20
        },
        {
          "Size": "M",
          "Waist": 24,
          "Hip": 34,
          "Length": 20
        },
        {
          "Size": "XS",
          "Waist": 24,
          "Hip": 34,
          "Length": 20
        },
        {
          "Size": "L",
          "Waist": 24,
          "Hip": 34,
          "Length": 20
        },
        {
          "Size": "XL",
          "Waist": 24,
          "Hip": 34,
          "Length": 20
        }
      ],
      "Price": 3000,
      "Discount": 0,
      "Details": "Tie up Neckline, Narrow Cuffs, Statement buttons",
      "Image":"car18.png",
      "Description": "This top features a silken tie which speaks of authority and elegance. It can be tied up in a bow fashion or let loose delicately; tucked in or tucked out. Either way it will add richness to your look in a very minimalistic manner.",
      "Features": [
        {
          "Wrinkle_free": "false"
        },
        {
          "Stretch": "false"
        },
        {
          "clothing": "true"
        },
        {
          "Lined": "false"
        },
        {
          "Sheer": "true"
        },
        {
          "Machine_Wash": "true"
        }
      ]
    },
{
      "id": "product015",
      "Name": "Ivory ",
      "ColorAvail": {
        "Color": "Cream",
        "ColorCode": "#325F78"
      },
      "SizeAvail": [
        {
          "Size": "S",
          "Waist": 24,
          "Hip": 34,
          "Length": 20
        },
        {
          "Size": "M",
          "Waist": 24,
          "Hip": 34,
          "Length": 20
        },
        {
          "Size": "XS",
          "Waist": 24,
          "Hip": 34,
          "Length": 20
        },
        {
          "Size": "L",
          "Waist": 24,
          "Hip": 34,
          "Length": 20
        },
        {
          "Size": "XL",
          "Waist": 24,
          "Hip": 34,
          "Length": 20
        }
      ],
      "Price": 3000,
      "Discount": 0,
      "Details": "Tie up Neckline, Narrow Cuffs, Statement buttons",
      "Image":"car19.png",
      "Description": "This top features a silken tie which speaks of authority and elegance. It can be tied up in a bow fashion or let loose delicately; tucked in or tucked out. Either way it will add richness to your look in a very minimalistic manner.",
      "Features": [
        {
          "Wrinkle_free": "false"
        },
        {
          "Stretch": "false"
        },
        {
          "clothing": "true"
        },
        {
          "Lined": "false"
        },
        {
          "Sheer": "true"
        },
        {
          "Machine_Wash": "true"
        }
      ]
    },
{
      "id": "product015",
      "Name": "Ivory ",
      "ColorAvail": {
        "Color": "Cream",
        "ColorCode": "#325F78"
      },
      "SizeAvail": [
        {
          "Size": "S",
          "Waist": 24,
          "Hip": 34,
          "Length": 20
        },
        {
          "Size": "M",
          "Waist": 24,
          "Hip": 34,
          "Length": 20
        },
        {
          "Size": "XS",
          "Waist": 24,
          "Hip": 34,
          "Length": 20
        },
        {
          "Size": "L",
          "Waist": 24,
          "Hip": 34,
          "Length": 20
        },
        {
          "Size": "XL",
          "Waist": 24,
          "Hip": 34,
          "Length": 20
        }
      ],
      "Price": 3000,
      "Discount": 0,
      "Details": "Tie up Neckline, Narrow Cuffs, Statement buttons",
      "Image":"car20.png",
      "Description": "This top features a silken tie which speaks of authority and elegance. It can be tied up in a bow fashion or let loose delicately; tucked in or tucked out. Either way it will add richness to your look in a very minimalistic manner.",
      "Features": [
        {
          "Wrinkle_free": "false"
        },
        {
          "Stretch": "false"
        },
        {
          "clothing": "true"
        },
        {
          "Lined": "false"
        },
        {
          "Sheer": "true"
        },
        {
          "Machine_Wash": "true"
        }
      ]
    },
{
      "id": "product015",
      "Name": "Ivory ",
      "ColorAvail": {
        "Color": "Cream",
        "ColorCode": "#325F78"
      },
      "SizeAvail": [
        {
          "Size": "S",
          "Waist": 24,
          "Hip": 34,
          "Length": 20
        },
        {
          "Size": "M",
          "Waist": 24,
          "Hip": 34,
          "Length": 20
        },
        {
          "Size": "XS",
          "Waist": 24,
          "Hip": 34,
          "Length": 20
        },
        {
          "Size": "L",
          "Waist": 24,
          "Hip": 34,
          "Length": 20
        },
        {
          "Size": "XL",
          "Waist": 24,
          "Hip": 34,
          "Length": 20
        }
      ],
      "Price": 3000,
      "Discount": 0,
      "Details": "Tie up Neckline, Narrow Cuffs, Statement buttons",
      "Image":"car13.png",
      "Description": "This top features a silken tie which speaks of authority and elegance. It can be tied up in a bow fashion or let loose delicately; tucked in or tucked out. Either way it will add richness to your look in a very minimalistic manner.",
      "Features": [
        {
          "Wrinkle_free": "false"
        },
        {
          "Stretch": "false"
        },
        {
          "clothing": "true"
        },
        {
          "Lined": "false"
        },
        {
          "Sheer": "true"
        },
        {
          "Machine_Wash": "true"
        }
      ]
    },
{
      "id": "product015",
      "Name": "Ivory ",
      "ColorAvail": {
        "Color": "Cream",
        "ColorCode": "#325F78"
      },
      "SizeAvail": [
        {
          "Size": "S",
          "Waist": 24,
          "Hip": 34,
          "Length": 20
        },
        {
          "Size": "M",
          "Waist": 24,
          "Hip": 34,
          "Length": 20
        },
        {
          "Size": "XS",
          "Waist": 24,
          "Hip": 34,
          "Length": 20
        },
        {
          "Size": "L",
          "Waist": 24,
          "Hip": 34,
          "Length": 20
        },
        {
          "Size": "XL",
          "Waist": 24,
          "Hip": 34,
          "Length": 20
        }
      ],
      "Price": 3000,
      "Discount": 0,
      "Details": "Tie up Neckline, Narrow Cuffs, Statement buttons",
      "Image":"car14.png",
      "Description": "This top features a silken tie which speaks of authority and elegance. It can be tied up in a bow fashion or let loose delicately; tucked in or tucked out. Either way it will add richness to your look in a very minimalistic manner.",
      "Features": [
        {
          "Wrinkle_free": "false"
        },
        {
          "Stretch": "false"
        },
        {
          "clothing": "true"
        },
        {
          "Lined": "false"
        },
        {
          "Sheer": "true"
        },
        {
          "Machine_Wash": "true"
        }
      ]
    },
{
      "id": "product015",
      "Name": "Ivory ",
      "ColorAvail": {
        "Color": "Cream",
        "ColorCode": "#325F78"
      },
      "SizeAvail": [
        {
          "Size": "S",
          "Waist": 24,
          "Hip": 34,
          "Length": 20
        },
        {
          "Size": "M",
          "Waist": 24,
          "Hip": 34,
          "Length": 20
        },
        {
          "Size": "XS",
          "Waist": 24,
          "Hip": 34,
          "Length": 20
        },
        {
          "Size": "L",
          "Waist": 24,
          "Hip": 34,
          "Length": 20
        },
        {
          "Size": "XL",
          "Waist": 24,
          "Hip": 34,
          "Length": 20
        }
      ],
      "Price": 3000,
      "Discount": 0,
      "Details": "Tie up Neckline, Narrow Cuffs, Statement buttons",
      "Image":"car15.png",
      "Description": "This top features a silken tie which speaks of authority and elegance. It can be tied up in a bow fashion or let loose delicately; tucked in or tucked out. Either way it will add richness to your look in a very minimalistic manner.",
      "Features": [
        {
          "Wrinkle_free": "false"
        },
        {
          "Stretch": "false"
        },
        {
          "clothing": "true"
        },
        {
          "Lined": "false"
        },
        {
          "Sheer": "true"
        },
        {
          "Machine_Wash": "true"
        }
      ]
    }
  ]
}
